Chapter 2 Working With Data | Introduction to Econometrics with R
…
The function head() will display the first n observations of the data frame, as we have seen. The head() function was more useful before tibbles. Notice that mpg is a tibble already, so the output from head() indicates there are only 10 observations. Note that this applies to head(mpg, n = 10) and not mpg itself. Also note that tibbles print a limited number of rows and columns by default. The last line of the printed output indicates with rows and columns were omitted.

mpg

## # A tibble: 234 x 11
##    manufacturer model    displ  year   cyl trans   drv     cty   hwy fl    class
##    <chr>        <chr>    <dbl> <int> <int> <chr>   <chr> <int> <int> <chr> <chr>
##  1 audi         a4         1.8  1999     4 auto(l… f        18    29 p     comp…
##  2 audi         a4         1.8  1999     4 manual… f        21    29 p     comp…
##  3 audi         a4         2    2008     4 manual… f        20    31 p     comp…
##  4 audi         a4         2    2008     4 auto(a… f        21    30 p     comp…
##  5 audi         a4         2.8  1999     6 auto(l… f        16    26 p     comp…
##  6 audi         a4         2.8  1999     6 manual… f        18    26 p     comp…
##  7 audi         a4         3.1  2008     6 auto(a… f        18    27 p     comp…
##  8 audi         a4 quat…   1.8  1999     4 manual… 4        18    26 p     comp…
##  9 audi         a4 quat…   1.8  1999     4 auto(l… 4        16    25 p     comp…
## 10 audi         a4 quat…   2    2008     4 manual… 4        20    28 p     comp…
## # … with 224 more rows
…
# total population in raw format
tot_pop_raw = read_excel(
                path = system.file(package="ScPoEconometrics",
                                    "datasets","demo_gind.xls"), 
                sheet="Data", # which sheet
                range="A9:K68")  # which excel cell range to read
names(tot_pop_raw)[1] <- "Country"   # lets rename the first column
tot_pop_raw

## # A tibble: 59 x 11
##    Country `2008` `2009` `2010` `2011` `2012` `2013` `2014` `2015` `2016` `2017`
##    <chr>   <chr>  <chr>  <chr>  <chr>  <chr>  <chr>  <chr>  <chr>  <chr>  <chr> 
##  1 Europe… 50029… 50209… 50317… 50296… 50404… 50516… 50701… 50854… 51027… 51152…
##  2 Europe… 43872… 44004… 44066… 43994… 44055… 44125… 44266… 44366… 44489… 44571…
##  3 Europe… 49598… 49778… 49886… 49867… 49977… 50090… 50276… 50431… 50608… 50736…
##  4 Euro a… 33309… 33447… 33526… 33457… 33528… 33604… 33754… 33856… 33988… 34072…
##  5 Euro a… 32988… 33128… 33212… 33152… 33228… 33307… 33459… 33563… 33699… 33787…
##  6 Belgium 10666… 10753… 10839… 11000… 11075… 11137… 11180… 11237… 11311… 11351…
##  7 Bulgar… 75180… 74671… 74217… 73694… 73272… 72845… 72456… 72021… 71537… 71018…
##  8 Czech … 10343… 10425… 10462… 10486… 10505… 10516… 10512… 10538… 10553… 10578…
##  9 Denmark 54757… 55114… 55347… 55606… 55805… 56026… 56272… 56597… 57072… 57487…
## 10 German… 82217… 82002… 81802… 80222… 80327… 80523… 80767… 81197… 82175… 82521…
## # … with 49 more rows
…
2.4.3.1 tidyr

In the previous tibble, each year is a column name (like 2008) instead of all years being collected in one column year. We really would like to have several rows for each Country, one row per year. We want to gather() all years into a new column to tidy this up - and here is how:

specify which columns are to be gathered: in our case, all years (note that paste(2008:2017) produces a vector like ["2008", "2009", "2010",...])

say what those columns should be gathered into, i.e. what is the key for those values: we’ll call it year.

Finally, what is the name of the new resulting column, containing the value from each cell: let’s call it counts.

library(tidyr)   # for the gather function
tot_pop = gather(tot_pop_raw, paste(2008:2017),key="year", value = "counts")
tot_pop

## # A tibble: 590 x 3
##    Country                                          year  counts   
##    <chr>                                            <chr> <chr>    
##  1 European Union (current composition)             2008  500297033
##  2 European Union (without United Kingdom)          2008  438725386
##  3 European Union (before the accession of Croatia) 2008  495985066
##  4 Euro area (19 countries)                         2008  333096775
##  5 Euro area (18 countries)                         2008  329884170
##  6 Belgium                                          2008  10666866 
##  7 Bulgaria                                         2008  7518002  
##  8 Czech Republic                                   2008  10343422 
##  9 Denmark                                          2008  5475791  
## 10 Germany (until 1990 former territory of the FRG) 2008  82217837 
## # … with 580 more rows

That’s better! However, counts is still chr! Let’s convert it to a number:

tot_pop$counts = as.integer(tot_pop$counts)

## Warning: NAs introduced by coercion

tot_pop

## # A tibble: 590 x 3
##    Country                                          year     counts
##    <chr>                                            <chr>     <int>
##  1 European Union (current composition)             2008  500297033
##  2 European Union (without United Kingdom)          2008  438725386
##  3 European Union (before the accession of Croatia) 2008  495985066
##  4 Euro area (19 countries)                         2008  333096775
##  5 Euro area (18 countries)                         2008  329884170
##  6 Belgium                                          2008   10666866
##  7 Bulgaria                                         2008    7518002
##  8 Czech Republic                                   2008   10343422
##  9 Denmark                                          2008    5475791
## 10 Germany (until 1990 former territory of the FRG) 2008   82217837
## # … with 580 more rows
…
Males and Females

Let’s look at the numbers by male and female population. They are in the same xls file, but at different cell ranges. Also, I just realised that the special character : indicates missing data. We can feed that to read_excel and that will spare us the need to convert data types afterwards. Let’s see:

females_raw = read_excel(
                path = system.file(package="ScPoEconometrics",
                                    "datasets","demo_gind.xls"), 
                sheet="Data", # which sheet
                range="A141:K200",  # which excel cell range to read
                na=":" )   # missing data indicator
names(females_raw)[1] <- "Country"   # lets rename the first column
females_raw

## # A tibble: 59 x 11
##    Country `2008` `2009` `2010` `2011` `2012` `2013` `2014` `2015` `2016` `2017`
##    <chr>    <dbl>  <dbl>  <dbl>  <dbl>  <dbl>  <dbl>  <dbl>  <dbl>  <dbl>  <dbl>
##  1 Europe… 2.56e8 2.57e8 2.58e8 2.58e8 2.58e8 2.59e8 2.60e8 2.60e8 2.61e8 2.61e8
##  2 Europe… 2.25e8 2.26e8 2.26e8 2.26e8 2.26e8 2.26e8 2.27e8 2.27e8 2.28e8 2.28e8
##  3 Europe… 2.54e8 2.55e8 2.55e8 2.56e8 2.56e8 2.57e8 2.57e8 2.58e8 2.59e8 2.59e8
##  4 Euro a… 1.71e8 1.71e8 1.72e8 1.72e8 1.72e8 1.72e8 1.73e8 1.73e8 1.74e8 1.74e8
##  5 Euro a… 1.69e8 1.70e8 1.70e8 1.70e8 1.70e8 1.71e8 1.71e8 1.72e8 1.72e8 1.73e8
##  6 Belgium 5.44e6 5.48e6 5.53e6 5.60e6 5.64e6 5.67e6 5.69e6 5.71e6 5.74e6 5.76e6
##  7 Bulgar… 3.86e6 3.83e6 3.81e6 3.78e6 3.76e6 3.74e6 3.72e6 3.70e6 3.68e6 3.65e6
##  8 Czech … 5.28e6 5.31e6 5.33e6 5.34e6 5.35e6 5.35e6 5.35e6 5.36e6 5.37e6 5.38e6
##  9 Denmark 2.76e6 2.78e6 2.79e6 2.80e6 2.81e6 2.82e6 2.83e6 2.85e6 2.87e6 2.89e6
## 10 German… 4.19e7 4.18e7 4.17e7 4.11e7 4.11e7 4.11e7 4.12e7 4.14e7 4.17e7 4.18e7
## # … with 49 more rows
…
Next step was to tidy up this data, just as before:

females = gather(females_raw, paste(2008:2017),key="year", value = "counts")
males = gather(males_raw, paste(2008:2017),key="year", value = "counts")

Let’s try to tweak our above plot to show the same data in two separate panels: one for males and one for females. This is easiest to do with ggplot if we have all the data in one single data.frame (or tibble), and marked with a group identifier. Let’s first add this to both datasets, and then let’s just combine both into one:

females$sex = "female"
males$sex = "male"
sexes = rbind(males,females)   # "row bind" 2 data.frames
sexes

## # A tibble: 1,180 x 4
##    Country                                          year     counts sex  
##    <chr>                                            <chr>     <dbl> <chr>
##  1 European Union (current composition)             2008  243990548 male 
##  2 European Union (without United Kingdom)          2008  213826199 male 
##  3 European Union (before the accession of Croatia) 2008  241913560 male 
##  4 Euro area (19 countries)                         2008  162516883 male 
##  5 Euro area (18 countries)                         2008  161029464 male 
##  6 Belgium                                          2008    5224309 male 
##  7 Bulgaria                                         2008    3660367 male 
##  8 Czech Republic                                   2008    5065117 male 
##  9 Denmark                                          2008    2712666 male 
## 10 Germany (until 1990 former territory of the FRG) 2008   40274292 male 
## # … with 1,170 more rows
…
        "United Kingdom",
        "Italy")
    ) %>%
  # 2. group data by year
  group_by(year) %>%
  # 3. add GER's count as new column *by year*
  left_join(
    # Germany only
    filter(tot_pop,
           Country %in% "Germany including former GDR"),
    # join back in `by year`
    by="year")
merge_GER

## # A tibble: 30 x 5
## # Groups:   year [10]
##    Country.x      year  counts.x Country.y                    counts.y
##    <chr>          <chr>    <int> <chr>                           <int>
##  1 France         2008  64007193 Germany including former GDR 82217837
##  2 Italy          2008  58652875 Germany including former GDR 82217837
##  3 United Kingdom 2008  61571647 Germany including former GDR 82217837
##  4 France         2009  64350226 Germany including former GDR 82002356
##  5 Italy          2009  59000586 Germany including former GDR 82002356
##  6 United Kingdom 2009  62042343 Germany including former GDR 82002356
##  7 France         2010  64658856 Germany including former GDR 81802257
##  8 Italy          2010  59190143 Germany including former GDR 81802257
##  9 United Kingdom 2010  62510197 Germany including former GDR 81802257
## 10 France         2011  64978721 Germany including former GDR 80222065
## # … with 20 more rows
…
