Effects of Free Trade Agreements
…
How often does each country appear as iso_d within a year? Make a table that counts how often each country appears as iso_d per year!

## # A tibble: 1,106,870 x 3
## # Groups:   year [69]
##     year iso_d     n
##    <dbl> <chr> <int>
##  1  1984 ABW       2
##  2  1984 ABW       2
##  3  1985 ABW       1
##  4  1986 ABW       1
##  5  1987 ABW       1
##  6  1988 ABW       5
##  7  1988 ABW       5
##  8  1988 ABW       5
##  9  1988 ABW       5
## 10  1988 ABW       5
## # ... with 1,106,860 more rows
…
